%!PS-Adobe-3.0 EPSF-3.0
%%Creator: cairo 1.15.12 (http://cairographics.org)
%%CreationDate: Wed Oct 21 09:28:36 2020
%%Pages: 1
%%DocumentData: Clean7Bit
%%LanguageLevel: 2
%%BoundingBox: 14 0 370 384
%%EndComments
%%BeginProlog
50 dict begin
/q { gsave } bind def
/Q { grestore } bind def
/cm { 6 array astore concat } bind def
/w { setlinewidth } bind def
/J { setlinecap } bind def
/j { setlinejoin } bind def
/M { setmiterlimit } bind def
/d { setdash } bind def
/m { moveto } bind def
/l { lineto } bind def
/c { curveto } bind def
/h { closepath } bind def
/re { exch dup neg 3 1 roll 5 3 roll moveto 0 rlineto
      0 exch rlineto 0 rlineto closepath } bind def
/S { stroke } bind def
/f { fill } bind def
/f* { eofill } bind def
/n { newpath } bind def
/W { clip } bind def
/W* { eoclip } bind def
/BT { } bind def
/ET { } bind def
/BDC { mark 3 1 roll /BDC pdfmark } bind def
/EMC { mark /EMC pdfmark } bind def
/cairo_store_point { /cairo_point_y exch def /cairo_point_x exch def } def
/Tj { show currentpoint cairo_store_point } bind def
/TJ {
  {
    dup
    type /stringtype eq
    { show } { -0.001 mul 0 cairo_font_matrix dtransform rmoveto } ifelse
  } forall
  currentpoint cairo_store_point
} bind def
/cairo_selectfont { cairo_font_matrix aload pop pop pop 0 0 6 array astore
    cairo_font exch selectfont cairo_point_x cairo_point_y moveto } bind def
/Tf { pop /cairo_font exch def /cairo_font_matrix where
      { pop cairo_selectfont } if } bind def
/Td { matrix translate cairo_font_matrix matrix concatmatrix dup
      /cairo_font_matrix exch def dup 4 get exch 5 get cairo_store_point
      /cairo_font where { pop cairo_selectfont } if } bind def
/Tm { 2 copy 8 2 roll 6 array astore /cairo_font_matrix exch def
      cairo_store_point /cairo_font where { pop cairo_selectfont } if } bind def
/g { setgray } bind def
/rg { setrgbcolor } bind def
/d1 { setcachedevice } bind def
/cairo_data_source {
  CairoDataIndex CairoData length lt
    { CairoData CairoDataIndex get /CairoDataIndex CairoDataIndex 1 add def }
    { () } ifelse
} def
/cairo_flush_ascii85_file { cairo_ascii85_file status { cairo_ascii85_file flushfile } if } def
/cairo_image { image cairo_flush_ascii85_file } def
/cairo_imagemask { imagemask cairo_flush_ascii85_file } def
%%EndProlog
%%BeginSetup
%%EndSetup
%%Page: 1 1
%%BeginPageSetup
%%PageBoundingBox: 14 0 370 384
%%EndPageSetup
q 14 0 356 384 rectclip
1 0 0 -1 0 384 cm q
0.807843 0.0941176 0.0941176 rg
185.496 361.996 m 85.34 361.996 l 58.121 361.996 36.035 339.832 36.035 
312.691 c 36.035 71.309 l 36.035 44.09 58.203 22.004 85.34 22.004 c 187.125
 22.004 l 193.238 22.004 198.129 17.113 198.129 11 c 198.129 4.891 193.238
 0 187.125 0 c 85.34 0 l 45.977 0 14.031 32.027 14.031 71.309 c 14.031 312.691
 l 14.031 352.055 46.059 384 85.34 384 c 185.496 384 l 191.609 384 196.496
 379.109 196.496 373 c 196.496 366.887 191.527 361.996 185.496 361.996 c
 h
185.496 361.996 m f
366.738 184.258 m 296.816 114.336 l 292.496 110.016 285.57 110.016 281.25
 114.336 c 276.934 118.656 276.934 125.582 281.25 129.902 c 332.43 181.078
 l 109.219 181.078 l 103.105 181.078 98.215 185.969 98.215 192.082 c 98.215
 198.195 103.105 203.082 109.219 203.082 c 332.43 203.082 l 281.25 254.262
 l 276.934 258.582 276.934 265.508 281.25 269.828 c 283.371 271.945 286.223
 273.086 288.992 273.086 c 291.766 273.086 294.617 272.027 296.734 269.828
 c 366.656 199.906 l 371.059 195.504 371.059 188.496 366.738 184.258 c h
366.738 184.258 m f
Q Q
showpage
%%Trailer
end
%%EOF
